taile du carre = entier 
tab 1 , tab 2 =list 









    let tab = [];
    
     for (var i = 0; i <qwerty; i++) {

    let tab2 = [];
       
    for (var j = 0; j <qwerty; j++){
        tab2.push(num2)
    }
    tab.push(tab2)
    }     
    
     return tab
        